{
    "version": "0.1.1",
    "files": [
        {
            "address": 0,
            "bin": "boot0.bin",
            "sha256Prefix": true
        },
        {
            "address": 0x1000,
            "bin": "bootloader.bin",
            "sha256Prefix": true
        },
        {
            "address": 0x4000,
            "bin": "config.bin",
            "sha256Prefix": false
        },
        {
            "address": 0x5000,
            "bin": "config.bin",
            "sha256Prefix": false
        },
        {
            "address": 0x10000,
            "bin": "PULD_V0.0.1_FRF_RELEASE_enc.bin",
            "sha256Prefix": true
        }
    ]
}
